{
  "index": {    
    "local": {
      "isFull": true,
      "idfmt": {
        "device": "",
        "data": ""
      },
      "max": "max",
      "device": {},
      "data": [],
      "isWeather": true
    },
    "greenhouse": {
      "isFull": true,
      "idfmt": {
        "device": "",
        "data": ""
      },
      "max": "max",
      "device": {},
      "data": []
    },
    "actuator": {
      "isFull": true,
      "idfmt": {
        "device": "",
        "data": ""
      },
      "max": "max",
      "device": {},
      "data": []
    }
  },
  "dashboard": {
    "ventilation": {
      "idfmt": {
        "device": "",
        "data": "3[0-9][0-9][0-9][0-9][0-9]26"
      },
      "max": 1,
      "device": {},
      "data": []
    },
    "heating": {
      "idfmt": {
        "device": "",
        "data": "3[0-9][0-9][0-9][0-9][0-9]25"
      },
      "max": 1,
      "device": {},
      "data": []
    },
    "temp": {
      "idfmt": {
        "deviceType": [
          "temperature-sensor",
          "humidity-sensor"
        ],
        "device": "1[0-9][0-9][0-9][0-9][0-9][0-9]1",
        "data": "",
        "timespan":1 
      },
      "max": "max",
      "device": {},
      "data": [],
      "isFull": false
    },
    "retractable": {
      "isImage" : false,
      "type": {
        "select": "time",
        "list": [
          "time",
          "ratio"
        ]
      },
      "time": {
        "max": 5,
        "idfmt": {
          "device": "1[0-9][0-9][0-9][0-9][0-9][0-9]4",
          "data": ""
        },
        "device": {},
        "data": [],
        "isFull": false
      },
      "ratio": {
        "max": 5,
        "idfmt": {
          "device": "1[0-9][0-9][0-9][0-9][0-9][0-9]2",
          "data": ""
        },
        "device": {},
        "data": [],
        "isFull": false
      }
    },
    "switch": {
      "max": 5,
      "idfmt": {
        "device": "1[0-9][0-9][0-9][0-9][0-9][0-9]4",
        "data": ""
      },
      "device": {},
      "data": [],
      "isFull": false
    }
  },
  "pad": {
    "data": [
    ]
  },
  "rtr_info":{
    "sun": "",
    "temp": ""
  },
  "visible" : true
}